info:
  name: usage-log
  type: http
  seq: 3

http:
  method: GET
  url: https://pro-x.io.vn/api/user/usage/recent?page=1&limit=15
  headers:
    - name: Accept
      value: "*/*"
    - name: Authorization
      value: Bearer <pro-x-token>
    - name: Content-Type
      value: application/json
  params:
    - name: page
      value: "1"
      type: query
    - name: limit
      value: "15"
      type: query
  auth: inherit

settings:
  encodeUrl: true
  timeout: 0
  followRedirects: true
  maxRedirects: 5

examples:
  - name: example
    request:
      url: https://pro-x.io.vn/api/user/usage/recent?page=1&limit=15
      method: GET
      headers:
        - name: Accept
          value: "*/*"
        - name: Accept-Language
          value: en-US,en;q=0.9
        - name: Authorization
          value: Bearer sk-b880b5d05ad3bb21dcb241b40eab4cda3ee67b0659c56eed250083bc04a644b0
        - name: Connection
          value: keep-alive
        - name: Content-Type
          value: application/json
        - name: Referer
          value: https://pro-x.io.vn/dashboard/
        - name: Sec-Fetch-Dest
          value: empty
        - name: Sec-Fetch-Mode
          value: cors
        - name: Sec-Fetch-Site
          value: same-origin
        - name: User-Agent
          value: Mozilla/5.0 (Macintosh; Intel Mac OS X 10_15_7) AppleWebKit/537.36 (KHTML, like Gecko) Chrome/146.0.0.0 Safari/537.36
        - name: sec-ch-ua
          value: '"Chromium";v="146", "Not-A.Brand";v="24", "Google Chrome";v="146"'
        - name: sec-ch-ua-mobile
          value: ?0
        - name: sec-ch-ua-platform
          value: '"macOS"'
      params:
        - name: page
          value: "1"
          type: query
        - name: limit
          value: "15"
          type: query
    response:
      status: 200
      statusText: OK
      headers:
        - name: server
          value: nginx/1.18.0 (Ubuntu)
        - name: date
          value: Thu, 09 Apr 2026 19:23:41 GMT
        - name: content-type
          value: application/json; charset=utf-8
        - name: content-length
          value: "2149"
        - name: connection
          value: keep-alive
        - name: x-powered-by
          value: Express
        - name: access-control-allow-origin
          value: "*"
        - name: etag
          value: W/"865-IUeUL7Mh6Stt7D0VOjUGIJjhZa8"
      body:
        type: json
        data: |-
          {
            "logs": [
              {
                "created_at": "2026-04-09T11:52:03.901Z",
                "model_display": "claude-opus-4-6",
                "input_tokens": 449,
                "output_tokens": 195,
                "total_cost": 0.0101925
              },
              {
                "created_at": "2026-04-09T11:51:53.931Z",
                "model_display": "claude-opus-4-6",
                "input_tokens": 89813,
                "output_tokens": 223,
                "total_cost": 0.6814025
              },
              {
                "created_at": "2026-04-09T11:50:19.606Z",
                "model_display": "claude-opus-4-6",
                "input_tokens": 80111,
                "output_tokens": 245,
                "total_cost": 0.6094075
              },
              {
                "created_at": "2026-04-09T11:49:14.940Z",
                "model_display": "claude-opus-4-6",
                "input_tokens": 79833,
                "output_tokens": 138,
                "total_cost": 0.6035775
              },
              {
                "created_at": "2026-04-09T11:48:38.684Z",
                "model_display": "claude-opus-4-6",
                "input_tokens": 88282,
                "output_tokens": 94,
                "total_cost": 0.665405
              },
              {
                "created_at": "2026-04-09T11:48:24.458Z",
                "model_display": "claude-opus-4-6",
                "input_tokens": 728,
                "output_tokens": 303,
                "total_cost": 0.016065
              },
              {
                "created_at": "2026-04-09T11:48:13.866Z",
                "model_display": "claude-opus-4-6",
                "input_tokens": 1065,
                "output_tokens": 751,
                "total_cost": 0.0342725
              },
              {
                "created_at": "2026-04-09T11:47:54.549Z",
                "model_display": "claude-opus-4-6",
                "input_tokens": 78164,
                "output_tokens": 66,
                "total_cost": 0.58854
              },
              {
                "created_at": "2026-04-09T11:47:41.816Z",
                "model_display": "claude-opus-4-6",
                "input_tokens": 1094,
                "output_tokens": 493,
                "total_cost": 0.02546
              },
              {
                "created_at": "2026-04-09T11:46:26.230Z",
                "model_display": "claude-sonnet-4-6",
                "input_tokens": 20921,
                "output_tokens": 232,
                "total_cost": 0.110405
              },
              {
                "created_at": "2026-04-09T11:46:12.486Z",
                "model_display": "claude-opus-4-6",
                "input_tokens": 3481,
                "output_tokens": 175,
                "total_cost": 0.0322325
              },
              {
                "created_at": "2026-04-09T11:46:12.409Z",
                "model_display": "claude-sonnet-4-6",
                "input_tokens": 20995,
                "output_tokens": 117,
                "total_cost": 0.1079
              },
              {
                "created_at": "2026-04-09T11:45:42.826Z",
                "model_display": "claude-opus-4-6",
                "input_tokens": 590,
                "output_tokens": 93,
                "total_cost": 0.00768
              },
              {
                "created_at": "2026-04-09T11:45:36.240Z",
                "model_display": "claude-opus-4-6",
                "input_tokens": 73402,
                "output_tokens": 207,
                "total_cost": 0.55776
              },
              {
                "created_at": "2026-04-09T11:45:22.057Z",
                "model_display": "claude-opus-4-6",
                "input_tokens": 464,
                "output_tokens": 94,
                "total_cost": 0.00677
              }
            ],
            "pagination": {
              "page": 1,
              "limit": 15,
              "total": 4995,
              "total_pages": 333
            }
          }
